Chapter 4 Daten importieren | Data Literacy Test
…
# Diese Daten werden häufig für Erklärungen verwendet 

library(tidyverse)
??starwars
starwars

## # A tibble: 87 x 14
##    name               height  mass hair_color    skin_color  eye_color birth_year sex    gender    homeworld species films vehicles starships
##    <chr>               <int> <dbl> <chr>         <chr>       <chr>          <dbl> <chr>  <chr>     <chr>     <chr>   <lis> <list>   <list>   
##  1 Luke Skywalker        172    77 blond         fair        blue            19   male   masculine Tatooine  Human   <chr> <chr>    <chr [2]>
##  2 C-3PO                 167    75 <NA>          gold        yellow         112   none   masculine Tatooine  Droid   <chr> <chr>    <chr [0]>
##  3 R2-D2                  96    32 <NA>          white, blue red             33   none   masculine Naboo     Droid   <chr> <chr>    <chr [0]>
##  4 Darth Vader           202   136 none          white       yellow          41.9 male   masculine Tatooine  Human   <chr> <chr>    <chr [1]>
##  5 Leia Organa           150    49 brown         light       brown           19   female feminine  Alderaan  Human   <chr> <chr>    <chr [0]>
##  6 Owen Lars             178   120 brown, grey   light       blue            52   male   masculine Tatooine  Human   <chr> <chr>    <chr [0]>
##  7 Beru Whitesun lars    165    75 brown         light       blue            47   female feminine  Tatooine  Human   <chr> <chr>    <chr [0]>
##  8 R5-D4                  97    32 <NA>          white, red  red             NA   none   masculine Tatooine  Droid   <chr> <chr>    <chr [0]>
##  9 Biggs Darklighter     183    84 black         light       brown           24   male   masculine Tatooine  Human   <chr> <chr>    <chr [1]>
## 10 Obi-Wan Kenobi        182    77 auburn, white fair        blue-gray       57   male   masculine Stewjon   Human   <chr> <chr>    <chr [5]>
## # ... with 77 more rows
…
s

## # A tibble: 38 x 16
##       id  name name_first   sex  crpr height weight   age age_real smoke phone tatoo  eyes  hair location     county
##    <dbl> <dbl> <chr>      <dbl> <dbl>  <dbl>  <dbl> <dbl>    <dbl> <dbl> <dbl> <dbl> <dbl> <dbl> <chr>        <chr> 
##  1     1     1 Charlotte      1     1    167     57     2       21     1     1     2     4     2 Stuttgart    BW    
##  2     2     2 Jana           1     1    165     55     4       26     1     2     1     2     3 Ludwigsburg  BW    
##  3     3     3 Lena           1     1    175     65     2       22     1     1     1     3     3 Esslingen    BW    
##  4     4     4 Serena         1     2    172     59     2       21     1     1     1     1     4 Stuttgart    BW    
##  5     5     5 Anna           1     2    163     52     1       18     1     2     1     4     4 Kempten      BAY   
##  6     6     6 Ruth           1     2    177     63     2       20     1     2     1     3     2 Ludwigshafen RP    
##  7     7     7 Maria          1     2    172     64     2       20     1     1     2     3     4 Stuttgart    BW    
##  8     8     8 Eva            1     1    169     59     4       25     1     2     1     4     4 Filderstadt  BW    
##  9     9     9 Karl           2     1    184     82     4       26     2     2     1     3     4 Leonberg     BW    
## 10    10    10 Ahmed          2     2    174     70     3       23     2     2     1     3     4 Stuttgart    BW    
## # ... with 28 more rows
…
