Chapter 5 Datenanalyse mit dplyr | Data Literacy Test
…
## # A tibble: 4 x 16
##      id  name name_first   sex  crpr height weight   age age_real smoke phone tatoo  eyes  hair location  county
##   <dbl> <dbl> <chr>      <dbl> <dbl>  <dbl>  <dbl> <dbl>    <dbl> <dbl> <dbl> <dbl> <dbl> <dbl> <chr>     <chr> 
## 1     1     1 Charlotte      1     1    167     57     2       21     1     1     2     4     2 Stuttgart BW    
## 2     7     7 Maria          1     2    172     64     2       20     1     1     2     3     4 Stuttgart BW    
## 3    20    20 Julia          1     1    170     52     1       19     1     2     2     2     3 Stuttgart BW    
## 4    27    27 Merle          1     2    162     52     2       21     1     1     2     2     4 Stuttgart BW

# Werte sortieren
# nach genauem Alter
s %>% arrange(age_real)

## # A tibble: 38 x 16
##       id  name name_first   sex  crpr height weight   age age_real smoke phone tatoo  eyes  hair location     county
##    <dbl> <dbl> <chr>      <dbl> <dbl>  <dbl>  <dbl> <dbl>    <dbl> <dbl> <dbl> <dbl> <dbl> <dbl> <chr>        <chr> 
##  1    24    24 Rana           1     1    159     49     1       17     1     1     1     2     4 Sindelfingen BW    
##  2     5     5 Anna           1     2    163     52     1       18     1     2     1     4     4 Kempten      BAY   
##  3    15    15 Maja           1     2    162     58     1       18     2     1     1     3     2 Ravensburg   BW    
##  4    19    19 Andrea         3     1    166     54     1       18     2     2     1     3     4 Stuttgart    BW    
##  5    25    25 Samira         1     1    162     50     1       18     1     2     1     2     3 Stuttgart    BW    
##  6    32    32 Dana           1     1    172     58     1       18     1     1     1     4     2 Leonberg     BW    
##  7    34    34 Elisa          1     1    172     66     1       18     1     2     1     1     4 Ulm          BW    
##  8    35    35 Leonie         1     1    169     57     1       18     1     2     1     2     3 Karlsruhe    BW    
##  9    11    11 Daniel         2     1    188     78     1       19     2     1     1     3     3 Konstanz     BW    
## 10    18    18 Mia            1     1    168     54     1       19     1     1     1     4     4 Esslingen    BW    
## # ... with 28 more rows

# absteigend sortieren nach Größe (größter Wert zuerst)
s %>% arrange(desc(height))

## # A tibble: 38 x 16
##       id  name name_first   sex  crpr height weight   age age_real smoke phone tatoo  eyes  hair location     county
##    <dbl> <dbl> <chr>      <dbl> <dbl>  <dbl>  <dbl> <dbl>    <dbl> <dbl> <dbl> <dbl> <dbl> <dbl> <chr>        <chr> 
##  1    23    23 Ben            2     1    189     83     4       25     2     2     2     1     4 Stuttgart    BW    
##  2    11    11 Daniel         2     1    188     78     1       19     2     1     1     3     3 Konstanz     BW    
##  3     9     9 Karl           2     1    184     82     4       26     2     2     1     3     4 Leonberg     BW    
##  4    37    37 Sarah          1     2    184     60     1       19     1     2     1     2     2 Frankfurt    HE    
##  5    31    31 Luca           2     1    183     74     2       21     1     1     1     3     4 Stuttgart    BW    
##  6    16    16 Dejan          2     2    179     66     3       23     1     2     1     3     3 Karlsruhe    BW    
##  7    28    28 Maris          3     2    178     65     4       25     1     2     2     4     4 Hamburg      HH    
##  8     6     6 Ruth           1     2    177     63     2       20     1     2     1     3     2 Ludwigshafen RP    
##  9    29    29 Sina           1     2    177     59     4       26     1     1     1     2     3 Stuttgart    BW    
## 10    17    17 Ellie          3     1    176     64     4       25     1     2     2     1     4 Ulm          BW    
## # ... with 28 more rows
…
# Einzelne Spalten selektieren
vornamen <- s %>%
    select(name_first)
vornamen

## # A tibble: 38 x 1
##    name_first
##    <chr>     
##  1 Charlotte 
##  2 Jana      
##  3 Lena      
##  4 Serena    
##  5 Anna      
##  6 Ruth      
##  7 Maria     
##  8 Eva       
##  9 Karl      
## 10 Ahmed     
## # ... with 28 more rows

# Mehrere Spalten selektieren
crpr_sex <- s %>%
    select(name_first, sex, crpr)
crpr_sex

## # A tibble: 38 x 3
##    name_first   sex  crpr
##    <chr>      <dbl> <dbl>
##  1 Charlotte      1     1
##  2 Jana           1     1
##  3 Lena           1     1
##  4 Serena         1     2
##  5 Anna           1     2
##  6 Ruth           1     2
##  7 Maria          1     2
##  8 Eva            1     1
##  9 Karl           2     1
## 10 Ahmed          2     2
## # ... with 28 more rows

Häufig ist es wichtig, Variablen umzubenennen, um eine bessere
Lesbarkeit der Daten zu erreichen. Dazu verwenden wir den Befehl
rename(). Achtung: der neue Wert wird zuerst genannt, dann der Wert, der
umgeschrieben werden soll.

# Variablen umbenennen. Achtung: der neue Wert muss zuerst in der Funktion genannt werden.
s2 <- s %>% 
  rename(geschlecht = sex) %>%
  select(name, geschlecht)
s2 # wir haben zwei Spalten mit name und geschlecht selektiert

## # A tibble: 38 x 2
##     name geschlecht
##    <dbl>      <dbl>
##  1     1          1
##  2     2          1
##  3     3          1
##  4     4          1
##  5     5          1
##  6     6          1
##  7     7          1
##  8     8          1
##  9     9          2
## 10    10          2
## # ... with 28 more rows
…
# Wir müssen zunächst die Körpergröße in Meter umrechnen, da sich sonst die Werte verfälschen, denn im Original-Datensatz sind die Werte in cm angegeben.

bmi <- s %>% # 
  mutate(height = height/100) %>% 
    # teile die Angabe in cm durch 100, um die Angabe in Meter zu erhalten.
    mutate(bmi = weight/(height*height)) %>%  
    # lege eine neue Variable bmi an
  select(name_first, sex, height, bmi) %>% 
    # nimm nur die ersten drei Spalten
    mutate(across(where(is.numeric), round, 2))
    # rundet alle numerischen Werte auf zwei Dezimalen

bmi

## # A tibble: 38 x 4
##    name_first   sex height   bmi
##    <chr>      <dbl>  <dbl> <dbl>
##  1 Charlotte      1   1.67  20.4
##  2 Jana           1   1.65  20.2
##  3 Lena           1   1.75  21.2
##  4 Serena         1   1.72  19.9
##  5 Anna           1   1.63  19.6
##  6 Ruth           1   1.77  20.1
##  7 Maria          1   1.72  21.6
##  8 Eva            1   1.69  20.7
##  9 Karl           2   1.84  24.2
## 10 Ahmed          2   1.74  23.1
## # ... with 28 more rows
…
