Chapter 6 Visualisierung | Data Literacy Test
…
Uns interessiert nun der Gesundheitszustand des Samples. Größe und
Gewicht sind nur eingeschränkt aussagekräftig. Wir wollen deshalb den
BMI-Index weiterverwenden:

# Daten vorbereiten

bmi <- s %>% # 
  mutate(height = height/100) %>% # multipliziere die cm mit 100 um meter zu erhalten
    mutate(bmi = weight/(height*height)) %>%  # lege eine neue Variable bmi an
  select(id, height, weight, sex, age_real, bmi) 
 # für eine einfachere Übersicht runde auf eine Dezimale

bmi

## # A tibble: 38 x 6
##       id height weight   sex age_real   bmi
##    <dbl>  <dbl>  <dbl> <dbl>    <dbl> <dbl>
##  1     1   1.67     57     1       21  20.4
##  2     2   1.65     55     1       26  20.2
##  3     3   1.75     65     1       22  21.2
##  4     4   1.72     59     1       21  19.9
##  5     5   1.63     52     1       18  19.6
##  6     6   1.77     63     1       20  20.1
##  7     7   1.72     64     1       20  21.6
##  8     8   1.69     59     1       25  20.7
##  9     9   1.84     82     2       26  24.2
## 10    10   1.74     70     2       23  23.1
## # ... with 28 more rows
…
